Analysis_Master
…
ICC analysis

icc <- final.data %>% 
  select(id, period, timepoint, test, vo2) %>% 
  filter(test == "max") %>% 
  pivot_wider(names_from = timepoint, values_from = vo2) %>% 
  mutate(change = post - pre) %>% 
  select(id, period, change) %>%
  pivot_wider(names_from = period, values_from = change) %>% 
  na.omit() %>% 
  print()

# A tibble: 42 × 3
# Groups:   id [42]
   id      `1`    `2`
   <fct> <dbl>  <dbl>
 1 1     108.    1.17
 2 2      82.8 181.  
 3 3     330.  208.  
 4 5     201.  315.  
 5 7     125   167.  
 6 8     106.  259.  
 7 9     282.  400.  
 8 10    146.  -38.8 
 9 14    349.  185   
10 15     15.7 280.  
# ℹ 32 more rows
…
