Resultater
…
lmm_wmax <- final.data %>% 
select(id, period, timepoint, test, watt) %>% 
  filter(test == "max", 
         !id %in% c(6,11, 20, 21, 25, 35, 37, 52, 53, 54, 56, 57),
         !period %in% (3)) %>% 
  pivot_wider(names_from = timepoint, values_from = watt) %>% 
  mutate(change = post - pre) %>% 
  print()

# A tibble: 84 × 6
# Groups:   id, period [84]
   id    period test   post   pre change
   <fct> <chr>  <chr> <dbl> <dbl>  <dbl>
 1 1     1      max    152.  153. -0.833
 2 1     2      max    160   162  -2    
 3 2     1      max    190.  165. 25.5  
 4 2     2      max    201.  180. 21.2  
 5 3     1      max    352.  343.  9.50 
 6 3     2      max    351.  317. 34.0  
 7 5     1      max    260.  235  25.3  
 8 5     2      max    262.  230. 31.8  
 9 7     1      max    126.  106. 19.2  
10 7     2      max    128   105  23    
# ℹ 74 more rows
…
      2.5%      97.5% 
0.07325494 0.61435928 

W15min

lmm_w15 <- final.data %>% 
select(id, period, timepoint, test, watt) %>% 
  filter(test == "per", 
         !id %in% c(6,11, 20, 21, 25, 35, 37, 52, 53, 54, 56, 57),
         !period %in% (3)) %>% 
  pivot_wider(names_from = timepoint, values_from = watt) %>% 
  mutate(change = post - pre) %>% 
  print()

# A tibble: 84 × 6
# Groups:   id, period [84]
   id    period test   post   pre change
   <fct> <chr>  <chr> <dbl> <dbl>  <dbl>
 1 1     1      per   101.   92.6  8.62 
 2 1     2      per   101.  102.  -0.725
 3 2     1      per   120.  109.  10.9  
 4 2     2      per   127.  111.  15.7  
 5 3     1      per   229.  237.  -7.71 
 6 3     2      per   244.  204.  39.4  
 7 5     1      per   155.  151.   4.27 
 8 5     2      per   163.  147.  16.8  
 9 7     1      per    74.9  62.6 12.3  
10 7     2      per    78.4  57.5 20.9  
# ℹ 74 more rows
…
     2.5%     97.5% 
0.0000000 0.5130516 

VO2(ml/kg/min)

lmm_vo2kg <- final.data %>% 
select(id, period, timepoint, test, vo2.kg) %>% 
  filter(test == "max", 
         !id %in% c(6,11, 20, 21, 25, 35, 37, 52, 53, 54, 56, 57),
         !period %in% (3)) %>% 
  pivot_wider(names_from = timepoint, values_from = vo2.kg) %>% 
  mutate(change = post - pre) %>% 
  print()

# A tibble: 84 × 6
# Groups:   id, period [84]
   id    period test   post   pre change
   <fct> <chr>  <chr> <dbl> <dbl>  <dbl>
 1 1     1      max    27.6  25.5  2.11 
 2 1     2      max    28.5  27.6  0.879
 3 2     1      max    37.0  34.3  2.74 
 4 2     2      max    37.5  35.1  2.45 
 5 3     1      max    49.7  46.4  3.27 
 6 3     2      max    52.6  48.8  3.77 
 7 5     1      max    32.2  29.4  2.79 
 8 5     2      max    32.9  29.2  3.73 
 9 7     1      max    22.6  19.3  3.35 
10 7     2      max    24.2  19.9  4.24 
# ℹ 74 more rows
…
     2.5%     97.5% 
0.0000000 0.4230417 

kroppsvekt

lmm_weight <- final.data %>% 
select(id, period, timepoint, test, weight) %>% 
  filter(test == "max", 
         !id %in% c(6,11, 20, 21, 25, 35, 37, 52, 53, 54, 56, 57),
         !period %in% (3)) %>% 
  pivot_wider(names_from = timepoint, values_from = weight) %>% 
  mutate(change = post - pre) %>% 
  print()

# A tibble: 84 × 6
# Groups:   id, period [84]
   id    period test   post   pre change
   <fct> <chr>  <chr> <dbl> <dbl>  <dbl>
 1 1     1      max    69.2  70.4 -1.15 
 2 1     2      max    70    70.1 -0.100
 3 2     1      max    56.8  56.4  0.400
 4 2     2      max    57    55.8  1.15 
 5 3     1      max    85.2  85.2  0    
 6 3     2      max    85.7  86.6 -0.850
 7 5     1      max    96.7  99.8 -3.15 
 8 5     2      max    97.9  98.6 -0.700
 9 7     1      max    66.2  67.4 -1.25 
10 7     2      max    64.5  65.8 -1.30 
# ℹ 74 more rows
…
##Baseline tests with LMM and ICC ## Baseline W15min

baseline_w15 <- final.data %>% 
select(id, period, timepoint, test, watt) %>% 
  filter(test == "per", 
         timepoint == "pre",  
         !id %in% c(6,11, 20, 21, 25, 35, 37, 52, 53, 54, 56, 57),
         !period %in% (3)) %>%
  pivot_wider(names_from = timepoint, values_from = watt) %>% 
  rename(watt = pre) %>% 
  print()

# A tibble: 84 × 4
# Groups:   id, period [84]
   id    period test   watt
   <fct> <chr>  <chr> <dbl>
 1 1     1      per    92.6
 2 1     2      per   102. 
 3 2     1      per   109. 
 4 2     2      per   111. 
 5 3     1      per   237. 
 6 3     2      per   204. 
 7 5     1      per   151. 
 8 5     2      per   147. 
 9 7     1      per    62.6
10 7     2      per    57.5
# ℹ 74 more rows
…
Baseline VO2(ml/min)

baseline_vo2 <- final.data %>% 
select(id, period, timepoint, test, vo2) %>% 
  filter(test == "max", 
         timepoint == "pre",  
         !id %in% c(6,11, 20, 21, 25, 35, 37, 52, 53, 54, 56, 57),
         !period %in% (3)) %>%
  pivot_wider(names_from = timepoint, values_from = vo2) %>% 
  rename(vo2 = pre) %>% 
  print()

# A tibble: 84 × 4
# Groups:   id, period [84]
   id    period test    vo2
   <fct> <chr>  <chr> <dbl>
 1 1     1      max   1797 
 2 1     2      max   1937.
 3 2     1      max   1934.
 4 2     2      max   1978.
 5 3     1      max   3953.
 6 3     2      max   4204.
 7 5     1      max   2936.
 8 5     2      max   2845.
 9 7     1      max   1310.
10 7     2      max   1332.
# ℹ 74 more rows
…
##Baseline VO2/kg

baseline_vo2kg <- final.data %>% 
select(id, period, timepoint, test, vo2.kg) %>% 
  filter(test == "max", 
         timepoint == "pre",  
         !id %in% c(6,11, 20, 21, 25, 35, 37, 52, 53, 54, 56, 57),
         !period %in% (3)) %>%
  pivot_wider(names_from = timepoint, values_from = vo2.kg) %>% 
  rename(vo2.kg = pre) %>% 
  print()

# A tibble: 84 × 4
# Groups:   id, period [84]
   id    period test  vo2.kg
   <fct> <chr>  <chr>  <dbl>
 1 1     1      max     25.5
 2 1     2      max     27.6
 3 2     1      max     34.3
 4 2     2      max     35.1
 5 3     1      max     46.4
 6 3     2      max     48.8
 7 5     1      max     29.4
 8 5     2      max     29.2
 9 7     1      max     19.3
10 7     2      max     19.9
# ℹ 74 more rows
…
##wmax Baseline

baseline_wmax <- final.data %>% 
select(id, period, timepoint, test, watt) %>% 
  filter(test == "max", 
         timepoint == "pre",  
         !id %in% c(6,11, 20, 21, 25, 35, 37, 52, 53, 54, 56, 57),
         !period %in% (3)) %>%
  pivot_wider(names_from = timepoint, values_from = watt) %>% 
  rename(watt = pre) %>% 
  print()

# A tibble: 84 × 4
# Groups:   id, period [84]
   id    period test   watt
   <fct> <chr>  <chr> <dbl>
 1 1     1      max    153.
 2 1     2      max    162 
 3 2     1      max    165.
 4 2     2      max    180.
 5 3     1      max    343.
 6 3     2      max    317.
 7 5     1      max    235 
 8 5     2      max    230.
 9 7     1      max    106.
10 7     2      max    105 
# ℹ 74 more rows
…
Warning: There was 1 warning in `filter()`.
ℹ In argument: `type == c("4x5", "4x8", "6x6")`.
Caused by warning in `type == c("4x5", "4x8", "6x6")`:
! longer object length is not a multiple of shorter object length

# A tibble: 84 × 4
      id period test         watt
   <dbl> <chr>  <chr>       <dbl>
 1     1 1      mean_watt_1  86.9
 2     1 2      mean_watt_2  81.9
 3     2 1      mean_watt_1  81.1
 4     2 2      mean_watt_2 107. 
 5     3 1      mean_watt_1 175. 
 6     3 2      mean_watt_2 191  
 7     5 1      mean_watt_1 114. 
 8     5 2      mean_watt_2 114. 
 9     7 1      mean_watt_1  51.6
10     7 2      mean_watt_2  48.1
# ℹ 74 more rows
…
Warning: There was 1 warning in `filter()`.
ℹ In argument: `type == c("4x5", "4x8", "6x6")`.
Caused by warning in `type == c("4x5", "4x8", "6x6")`:
! longer object length is not a multiple of shorter object length

# A tibble: 84 × 4
      id period test         hr
   <dbl> <chr>  <chr>     <dbl>
 1     1 1      mean_hr_1  127.
 2     1 2      mean_hr_2  121.
 3     2 1      mean_hr_1  128 
 4     2 2      mean_hr_2  134.
 5     3 1      mean_hr_1  152.
 6     3 2      mean_hr_2  151.
 7     5 1      mean_hr_1  134.
 8     5 2      mean_hr_2  131.
 9     7 1      mean_hr_1  131 
10     7 2      mean_hr_2  126.
# ℹ 74 more rows
…
session.w66 <- session.data %>% 
  filter(!id %in% c(6, 11, 20, 21, 25, 35, 37, 52, 53, 54, 56, 57),
         type == "6x6") %>%
  pivot_wider(names_from = period, values_from = ftp:rpe) %>% 
  group_by(id) %>% 
  summarize(mean_watt_1 = mean(watt_1, na.rm=T),
            mean_watt_2 = mean(watt_2, na.rm=T)) %>%
  pivot_longer(cols = starts_with("mean_watt"),
               names_to = "test",
               values_to = "watt") %>%
  mutate(period = if_else(test == "mean_watt_1", "1", "2")) %>%
  select(id, period, test, watt) %>% 
  print()

# A tibble: 84 × 4
      id period test         watt
   <dbl> <chr>  <chr>       <dbl>
 1     1 1      mean_watt_1  79.1
 2     1 2      mean_watt_2  73  
 3     2 1      mean_watt_1  68.6
 4     2 2      mean_watt_2  87.1
 5     3 1      mean_watt_1 169. 
 6     3 2      mean_watt_2 173. 
 7     5 1      mean_watt_1  92.7
 8     5 2      mean_watt_2  99.3
 9     7 1      mean_watt_1  46.4
10     7 2      mean_watt_2  43.9
# ℹ 74 more rows
…
